Reads selected BDS data of a person — read_bds • bdsreader
…
data2 <- system.file("extdata", "bds_v3.0", "smocc", "Laura_S.json",
 package = "jamesdemodata")
q <- read_bds(data2)
q
#> <bdsreader>
#> $persondata:
#> # A tibble: 1 × 17
#>      id name   src   dnr   sex     gad    ga   smo    bw  hgtm  hgtf  agem  blbf
#>   <int> <chr>  <chr> <chr> <chr> <dbl> <dbl> <dbl> <dbl> <dbl> <dbl> <dbl> <int>
#> 1    -1 Laura… 0     NA    fema…   276    39     0  2950   164   179    NA    NA
#> # ℹ 4 more variables: blbm <int>, eduf <int>, edum <int>, par <int>
#> 
#> $timedata:
#> # A tibble: 58 × 8
#>      age xname yname zname zref                      x     y      z
#>    <dbl> <chr> <chr> <chr> <chr>                 <dbl> <dbl>  <dbl>
#>  1 0     age   hgt   hgt_z nl_1997_hgt_female_nl 0      48   -1.52 
#>  2 0.101 age   hgt   hgt_z nl_1997_hgt_female_nl 0.101  53.5 -0.499
#>  3 0.159 age   hgt   hgt_z nl_1997_hgt_female_nl 0.159  56   -0.261
#>  4 0.236 age   hgt   hgt_z nl_1997_hgt_female_nl 0.236  59.5  0.163
#>  5 0.485 age   hgt   hgt_z nl_1997_hgt_female_nl 0.485  65.5 -0.259
#>  6 0.753 age   hgt   hgt_z nl_1997_hgt_female_nl 0.753  71.5  0.131
#>  7 1.02  age   hgt   hgt_z nl_1997_hgt_female_nl 1.02   75   -0.18 
#>  8 1.25  age   hgt   hgt_z nl_1997_hgt_female_nl 1.25   80    0.421
#>  9 1.54  age   hgt   hgt_z nl_1997_hgt_female_nl 1.54   84    0.527
#> 10 2.04  age   hgt   hgt_z nl_1997_hgt_female_nl 2.04   90    0.67 
#> # ℹ 48 more rows
…
# Reading data with older format (bds_v1.0)
data1 <- system.file("extdata", "bds_v1.0", "smocc", "Laura_S.json",
  package = "jamesdemodata")
t <- read_bds(data1)
t
#> <bdsreader>
#> $persondata:
#> # A tibble: 1 × 12
#>      id name    src   dnr   sex      gad    ga   smo    bw  hgtm  hgtf  agem
#>   <int> <chr>   <chr> <chr> <chr>  <dbl> <dbl> <int> <dbl> <dbl> <dbl> <dbl>
#> 1    -1 Laura S 0     NA    female   276    39     0  2950   164   179    27
#> 
#> $timedata:
#> # A tibble: 58 × 8
#>      age xname yname zname zref                      x     y      z
#>    <dbl> <chr> <chr> <chr> <chr>                 <dbl> <dbl>  <dbl>
#>  1 0     age   hgt   hgt_z nl_1997_hgt_female_nl 0      48   -1.52 
#>  2 0.101 age   hgt   hgt_z nl_1997_hgt_female_nl 0.101  53.5 -0.499
#>  3 0.159 age   hgt   hgt_z nl_1997_hgt_female_nl 0.159  56   -0.261
#>  4 0.236 age   hgt   hgt_z nl_1997_hgt_female_nl 0.236  59.5  0.163
#>  5 0.485 age   hgt   hgt_z nl_1997_hgt_female_nl 0.485  65.5 -0.259
#>  6 0.753 age   hgt   hgt_z nl_1997_hgt_female_nl 0.753  71.5  0.131
#>  7 1.02  age   hgt   hgt_z nl_1997_hgt_female_nl 1.02   75   -0.18 
#>  8 1.25  age   hgt   hgt_z nl_1997_hgt_female_nl 1.25   80    0.421
#>  9 1.54  age   hgt   hgt_z nl_1997_hgt_female_nl 1.54   84    0.527
#> 10 2.04  age   hgt   hgt_z nl_1997_hgt_female_nl 2.04   90    0.67 
#> # ℹ 48 more rows
…
